[
  {
    "id": "root",
    "fieldName": "MainForm",
    "displayText": "Spørsmål om covid-19 og diabetes",
    "type": "group",
    "displayFormat": "0",
    "delimiter": "0",
    "listPrefix": "0",
    "style": "1",
    "subFields": [
      {
        "id": "group1",
        "fieldName": "bakgrunn",
        "displayText": "BAKGRUNNSINFORMASJON",
        "type": "group",
        "dataType": {},
        "style": "1",
        "listPrefix": "0",
        "validationRules": [],
        "displayFormat": "0",
        "delimiter": "2",
        "subFields": [
          {
            "id": "number1",
            "fieldName": "var12059",
            "displayText": "Hvor mange personer bor det i husstanden din?",
            "type": "number",
            "dataType": {
              "numberOfDecimals": 0,
              "max": 100,
              "maxLabel": null,
              "min": 0,
              "minLabel": null,
              "hideSliderValues": false,
              "step": 1,
              "unit": null,
              "displayType": "number",
              "orientation": "vertical"
            },
            "style": "1",
            "listPrefix": "0",
            "validationRules": [],
            "displayFormat": "0"
          },
          {
            "id": "enum1",
            "fieldName": "var2303",
            "displayText": "Hva er din arbeidssituasjon?",
            "type": "enum",
            "dataType": {
              "options": [
                {
                  "value": "1",
                  "text": "Utenfor arbeidsmarkedet og ikke under utdanning",
                  "index": 0
                },
                {
                  "value": "2",
                  "text": "Heltidsjobb",
                  "index": 1
                },
                {
                  "value": "3",
                  "text": "Deltidsjobb",
                  "index": 2
                },
                {
                  "value": "4",
                  "text": "Under utdanning",
                  "index": 3
                },
                {
                  "value": "5",
                  "text": "Deltidsjobb og under utdanning",
                  "index": 4
                },
                {
                  "value": "6",
                  "text": "Ukjent",
                  "index": 5
                }
              ],
              "displayType": "radio",
              "orientation": "vertical"
            },
            "style": "1",
            "listPrefix": "0",
            "validationRules": [],
            "displayFormat": "0"
          },
          {
            "id": "number2",
            "fieldName": "var3225",
            "displayText": "Hvor høy er du?",
            "type": "number",
            "dataType": {
              "numberOfDecimals": 0,
              "max": 220,
              "maxLabel": null,
              "min": 50,
              "minLabel": null,
              "hideSliderValues": false,
              "step": 1,
              "unit": "cm",
              "displayType": "number",
              "orientation": "vertical"
            },
            "style": "1",
            "listPrefix": "0",
            "validationRules": [],
            "displayFormat": "0"
          },
          {
            "id": "number3",
            "fieldName": "var3224",
            "displayText": "Hva veier du?",
            "type": "number",
            "dataType": {
              "numberOfDecimals": 1,
              "max": 400,
              "maxLabel": null,
              "min": 10,
              "minLabel": null,
              "hideSliderValues": false,
              "step": 1,
              "unit": "kg",
              "displayType": "number",
              "orientation": "vertical"
            },
            "style": "1",
            "listPrefix": "0",
            "validationRules": [],
            "displayFormat": "0"
          },
          {
            "id": "enum2",
            "fieldName": "var5721",
            "displayText": "Er du dagligrøyker?",
            "type": "enum",
            "dataType": {
              "options": [
                {
                  "value": "1",
                  "text": "Ja",
                  "index": 0
                },
                {
                  "value": "2",
                  "text": "Nei",
                  "index": 1
                }
              ],
              "displayType": "radio",
              "orientation": "vertical"
            },
            "style": "1",
            "listPrefix": "0",
            "validationRules": [],
            "displayFormat": "0"
          },
          {
            "id": "enum3",
            "fieldName": "var5722",
            "displayText": "Er det mer enn 3 måneder siden du sluttet å røyke?",
            "type": "enum",
            "dataType": {
              "options": [
                {
                  "value": "1",
                  "text": "Ja",
                  "index": 0
                },
                {
                  "value": "2",
                  "text": "Nei",
                  "index": 1
                },
                {
                  "value": "3",
                  "text": "Har aldri røykt daglig",
                  "index": 2
                }
              ],
              "displayType": "radio",
              "orientation": "vertical"
            },
            "style": "1",
            "listPrefix": "0",
            "validationRules": [],
            "displayFormat": "0",
            "displayWhen": [
              {
                "displayWhenFields": [
                  {
                    "field": "enum2",
                    "hasValue": "2"
                  }
                ]
              }
            ]
          },
          {
            "id": "number5",
            "fieldName": "var3486",
            "displayText": "Omtrent hvilket årstall ble din diabetes oppdaget?",
            "type": "number",
            "dataType": {
              "numberOfDecimals": 0,
              "max": 2022,
              "maxLabel": null,
              "min": 1910,
              "minLabel": null,
              "hideSliderValues": false,
              "step": 1,
              "unit": "",
              "displayType": "number",
              "orientation": "vertical"
            },
            "style": "1",
            "listPrefix": "0",
            "validationRules": [],
            "displayFormat": "0"
          },
          {
            "id": "enum4",
            "fieldName": "var12060",
            "displayText": "Hvor får du til vanlig oppfølging for din diabetes?",
            "type": "enum",
            "dataType": {
              "options": [
                {
                  "value": "1",
                  "text": "Fastlege",
                  "index": 0
                },
                {
                  "value": "2",
                  "text": "Sykehuspoliklinikk / privat spesialist",
                  "index": 1
                },
                {
                  "value": "3",
                  "text": "Kombinasjon av fastlege og sykehuspoliklinikk / privat spesialist",
                  "index": 2
                }
              ],
              "displayType": "radio",
              "orientation": "vertical"
            },
            "style": "1",
            "listPrefix": "0",
            "validationRules": [],
            "displayFormat": "0"
          }
        ]
      },
      {
        "id": "group2",
        "fieldName": "medisinbruk",
        "displayText": "MEDISINBRUK FOR DIABETES",
        "type": "group",
        "dataType": {},
        "style": "1",
        "listPrefix": "0",
        "validationRules": [],
        "displayFormat": "0",
        "delimiter": "2",
        "subFields": [
          {
            "id": "enum5",
            "fieldName": "var3322",
            "displayText": "Hvilken blodsukkersenkende behandling får du?",
            "type": "enum",
            "dataType": {
              "options": [
                {
                  "value": "1",
                  "text": "Kun kost/aktivitet",
                  "index": 0
                },
                {
                  "value": "2",
                  "text": "Andre blodsukkersenkende midler enn insulin (tabletter og/eller Bydureon, Byetta, Lyxumia, Ozempic, Trulicity, Victoza)",
                  "index": 1
                },
                {
                  "value": "3",
                  "text": "Kun insulinbehandlet",
                  "index": 2
                },
                {
                  "value": "4",
                  "text": "Insulin pluss andre blodsukkersenkende midler (tabletter og/eller Bydureon, Byetta, Lyxumia, Ozempic, Trulicity, Victoza)",
                  "index": 3
                },
                {
                  "value": "5",
                  "text": "Vet ikke",
                  "index": 4
                }
              ],
              "displayType": "radio",
              "orientation": "vertical"
            },
            "style": "1",
            "listPrefix": "0",
            "validationRules": [],
            "displayFormat": "0"
          },
          {
            "id": "enum70",
            "fieldName": "var4056",
            "displayText": "Bruker du insulinpumpe eller -penn?",
            "type": "enum",
            "dataType": {
              "options": [
                {
                  "value": "1",
                  "text": "Insulinpenn/sprøyte",
                  "index": 0
                },
                {
                  "value": "2",
                  "text": "Insulinpumpe",
                  "index": 1
                }
              ],
              "displayType": "radio",
              "orientation": "vertical"
            },
            "style": "1",
            "listPrefix": "0",
            "validationRules": [],
            "displayFormat": "0",
            "displayWhen": [
              {
                "displayWhenFields": [
                  {
                    "field": "enum5",
                    "hasValue": "3"
                  },
                  {
                    "field": "enum5",
                    "hasValue": "4"
                  }
                ]
              }
            ]
          }
        ]
      },
      {
        "id": "group3",
        "fieldName": "andresykdommer",
        "displayText": "ANDRE SYKDOMMER",
        "type": "group",
        "dataType": {},
        "style": "1",
        "listPrefix": "0",
        "validationRules": [],
        "displayFormat": "0",
        "delimiter": "2",
        "subFields": [
          {
            "id": "enum6",
            "fieldName": "var4639",
            "displayText": "Bruker du tabletter mot høyt blodtrykk?",
            "type": "enum",
            "dataType": {
              "options": [
                {
                  "value": "1",
                  "text": "Ja",
                  "index": 0
                },
                {
                  "value": "2",
                  "text": "Nei",
                  "index": 1
                },
                {
                  "value": "3",
                  "text": "Vet ikke",
                  "index": 2
                }
              ],
              "displayType": "radio",
              "orientation": "vertical"
            },
            "style": "1",
            "listPrefix": "0",
            "validationRules": [],
            "displayFormat": "0"
          },
          {
            "id": "enum7",
            "fieldName": "var3337",
            "displayText": "Bruker du kolesterolsenkende tabletter?",
            "type": "enum",
            "dataType": {
              "options": [
                {
                  "value": "1",
                  "text": "Ja",
                  "index": 0
                },
                {
                  "value": "2",
                  "text": "Nei",
                  "index": 1
                },
                {
                  "value": "3",
                  "text": "Vet ikke",
                  "index": 2
                }
              ],
              "displayType": "radio",
              "orientation": "vertical"
            },
            "style": "1",
            "listPrefix": "0",
            "validationRules": [],
            "displayFormat": "0"
          },
          {
            "id": "enum8",
            "fieldName": "var10122",
            "displayText": "Har du kjent astma?",
            "type": "enum",
            "dataType": {
              "options": [
                {
                  "value": "1",
                  "text": "Ja",
                  "index": 0
                },
                {
                  "value": "2",
                  "text": "Nei",
                  "index": 1
                },
                {
                  "value": "3",
                  "text": "Vet ikke",
                  "index": 2
                }
              ],
              "displayType": "radio",
              "orientation": "vertical"
            },
            "style": "1",
            "listPrefix": "0",
            "validationRules": [],
            "displayFormat": "0"
          },
          {
            "id": "enum9",
            "fieldName": "var9644",
            "displayText": "Har  du kjent KOLS?",
            "type": "enum",
            "dataType": {
              "options": [
                {
                  "value": "1",
                  "text": "Ja",
                  "index": 0
                },
                {
                  "value": "2",
                  "text": "Nei",
                  "index": 1
                },
                {
                  "value": "3",
                  "text": "Vet ikke",
                  "index": 2
                }
              ],
              "displayType": "radio",
              "orientation": "vertical"
            },
            "style": "1",
            "listPrefix": "0",
            "validationRules": [],
            "displayFormat": "0"
          },
          {
            "id": "enum10",
            "fieldName": "var3397",
            "displayText": "Har eller har du hatt angina (hjertekrampe), hjerteinfarkt eller er du blitt operert for trange blodårer i hjertet (stentet/blokket/bypass)?",
            "type": "enum",
            "dataType": {
              "options": [
                {
                  "value": "1",
                  "text": "Ja",
                  "index": 0
                },
                {
                  "value": "2",
                  "text": "Nei",
                  "index": 1
                },
                {
                  "value": "3",
                  "text": "Vet ikke",
                  "index": 2
                }
              ],
              "displayType": "radio",
              "orientation": "vertical"
            },
            "style": "1",
            "listPrefix": "0",
            "validationRules": [],
            "displayFormat": "0"
          },
          {
            "id": "enum11",
            "fieldName": "var3398",
            "displayText": "Har du hatt hjerneslag? (Kryss av for \"Nei\" dersom symptomene varte i mindre enn ett døgn)",
            "type": "enum",
            "dataType": {
              "options": [
                {
                  "value": "1",
                  "text": "Ja",
                  "index": 0
                },
                {
                  "value": "2",
                  "text": "Nei",
                  "index": 1
                },
                {
                  "value": "3",
                  "text": "Vet ikke",
                  "index": 2
                }
              ],
              "displayType": "radio",
              "orientation": "vertical"
            },
            "style": "1",
            "listPrefix": "0",
            "validationRules": [],
            "displayFormat": "0"
          },
          {
            "id": "enum12",
            "fieldName": "var12061",
            "displayText": "Har du reumatisk sykdom?",
            "type": "enum",
            "dataType": {
              "options": [
                {
                  "value": "1",
                  "text": "Ja",
                  "index": 0
                },
                {
                  "value": "2",
                  "text": "Nei",
                  "index": 1
                },
                {
                  "value": "3",
                  "text": "Vet ikke",
                  "index": 2
                }
              ],
              "displayType": "radio",
              "orientation": "vertical"
            },
            "style": "1",
            "listPrefix": "0",
            "validationRules": [],
            "displayFormat": "0"
          },
          {
            "id": "enum13",
            "fieldName": "var12062",
            "displayText": "Bruker du prednisolon fast?",
            "type": "enum",
            "dataType": {
              "options": [
                {
                  "value": "1",
                  "text": "Ja",
                  "index": 0
                },
                {
                  "value": "2",
                  "text": "Nei",
                  "index": 1
                },
                {
                  "value": "3",
                  "text": "Vet ikke",
                  "index": 2
                }
              ],
              "displayType": "radio",
              "orientation": "vertical"
            },
            "style": "1",
            "listPrefix": "0",
            "validationRules": [],
            "displayFormat": "0"
          }
        ]
      },
      {
        "id": "group4",
        "fieldName": "group4",
        "displayText": "VAKSINASJONSSTATUS",
        "type": "group",
        "dataType": {},
        "style": "1",
        "listPrefix": "0",
        "validationRules": [],
        "displayFormat": "0",
        "delimiter": "2",
        "subFields": [
          {
            "id": "enum14",
            "fieldName": "var12063",
            "displayText": "Tok du anbefalt vaksine for sesonginfluensa høsten 2020? (I fjor)",
            "type": "enum",
            "dataType": {
              "options": [
                {
                  "value": "1",
                  "text": "Ja",
                  "index": 0
                },
                {
                  "value": "2",
                  "text": "Nei",
                  "index": 1
                },
                {
                  "value": "3",
                  "text": "Vet ikke",
                  "index": 2
                }
              ],
              "displayType": "radio",
              "orientation": "vertical"
            },
            "style": "1",
            "listPrefix": "0",
            "validationRules": [],
            "displayFormat": "0"
          },
          {
            "id": "enum15",
            "fieldName": "var12064",
            "displayText": "Har du tatt vaksine for pneumokokk/lungebetennelse, som det anbefales at pasienter med diabetes skal vurderes å få?",
            "type": "enum",
            "dataType": {
              "options": [
                {
                  "value": "1",
                  "text": "Ja",
                  "index": 0
                },
                {
                  "value": "2",
                  "text": "Nei",
                  "index": 1
                },
                {
                  "value": "3",
                  "text": "Vet ikke",
                  "index": 2
                }
              ],
              "displayType": "radio",
              "orientation": "vertical"
            },
            "style": "1",
            "listPrefix": "0",
            "validationRules": [],
            "displayFormat": "0"
          },
          {
            "id": "enum16",
            "fieldName": "var12065",
            "displayText": "Er du vaksinert for covid-19?",
            "type": "enum",
            "dataType": {
              "options": [
                {
                  "value": "1",
                  "text": "Ja",
                  "index": 0
                },
                {
                  "value": "2",
                  "text": "Nei",
                  "index": 1
                },
                {
                  "value": "3",
                  "text": "Vet ikke",
                  "index": 2
                }
              ],
              "displayType": "radio",
              "orientation": "vertical"
            },
            "style": "1",
            "listPrefix": "0",
            "validationRules": [],
            "displayFormat": "0"
          },
          {
            "id": "enum17",
            "fieldName": "var12066",
            "displayText": "Hvilken vaksine fikk du?",
            "type": "enum",
            "dataType": {
              "options": [
                {
                  "value": "1",
                  "text": "AstraZeneca",
                  "index": 0
                },
                {
                  "value": "2",
                  "text": "Pfizer",
                  "index": 1
                },
                {
                  "value": "3",
                  "text": "Moderna",
                  "index": 2
                },
                {
                  "value": "4",
                  "text": "Kombinasjon",
                  "index": 3
                },
                {
                  "value": "5",
                  "text": "Vet ikke",
                  "index": 4
                }
              ],
              "displayType": "radio",
              "orientation": "vertical"
            },
            "style": "1",
            "listPrefix": "0",
            "validationRules": [],
            "displayFormat": "0",
            "displayWhen": [
              {
                "displayWhenFields": [
                  {
                    "field": "enum16",
                    "hasValue": "1"
                  }
                ]
              }
            ]
          },
          {
            "id": "enum18",
            "fieldName": "var12067",
            "displayText": "Fikk du vaksinebivirkninger?",
            "type": "enum",
            "dataType": {
              "options": [
                {
                  "value": "1",
                  "text": "Ja",
                  "index": 0
                },
                {
                  "value": "2",
                  "text": "Nei",
                  "index": 1
                },
                {
                  "value": "3",
                  "text": "Vet ikke",
                  "index": 2
                }
              ],
              "displayType": "radio",
              "orientation": "vertical"
            },
            "style": "1",
            "listPrefix": "0",
            "validationRules": [],
            "displayFormat": "0",
            "displayWhen": [
              {
                "displayWhenFields": [
                  {
                    "field": "enum16",
                    "hasValue": "1"
                  }
                ]
              }
            ]
          },
          {
            "id": "group9",
            "fieldName": "group9",
            "displayText": "Hvordan var vaksinebivirkningene?",
            "type": "group",
            "dataType": {},
            "style": "2",
            "listPrefix": "0",
            "validationRules": [],
            "displayFormat": "0",
            "delimiter": "0",
            "displayWhen": [
              {
                "displayWhenFields": [
                  {
                    "field": "enum18",
                    "hasValue": "1"
                  }
                ]
              }
            ],
            "subFields": [
              {
                "id": "enum71",
                "fieldName": "var12068",
                "displayText": "Hadde lette symptomer",
                "type": "enum",
                "dataType": {
                  "options": [
                    {
                      "value": "1",
                      "text": "Ja",
                      "index": 0
                    },
                    {
                      "value": "2",
                      "text": "Nei",
                      "index": 1
                    }
                  ],
                  "displayType": "radio",
                  "orientation": "vertical"
                },
                "style": "1",
                "listPrefix": "0",
                "validationRules": [],
                "displayFormat": "0"
              },
              {
                "id": "enum72",
                "fieldName": "var12069",
                "displayText": "Ble sengeliggende",
                "type": "enum",
                "dataType": {
                  "options": [
                    {
                      "value": "1",
                      "text": "Ja",
                      "index": 0
                    },
                    {
                      "value": "2",
                      "text": "Nei",
                      "index": 1
                    }
                  ],
                  "displayType": "radio",
                  "orientation": "vertical"
                },
                "style": "1",
                "listPrefix": "0",
                "validationRules": [],
                "displayFormat": "0"
              },
              {
                "id": "enum73",
                "fieldName": "var12070",
                "displayText": "Ble alvorlig syk",
                "type": "enum",
                "dataType": {
                  "options": [
                    {
                      "value": "1",
                      "text": "Ja",
                      "index": 0
                    },
                    {
                      "value": "2",
                      "text": "Nei",
                      "index": 1
                    }
                  ],
                  "displayType": "radio",
                  "orientation": "vertical"
                },
                "style": "1",
                "listPrefix": "0",
                "validationRules": [],
                "displayFormat": "0"
              },
              {
                "id": "enum74",
                "fieldName": "var12071",
                "displayText": "Meldte du inn noen av bivirkningene?",
                "type": "enum",
                "dataType": {
                  "options": [
                    {
                      "value": "1",
                      "text": "Ja",
                      "index": 0
                    },
                    {
                      "value": "2",
                      "text": "Nei",
                      "index": 1
                    }
                  ],
                  "displayType": "radio",
                  "orientation": "vertical"
                },
                "style": "1",
                "listPrefix": "0",
                "validationRules": [],
                "displayFormat": "0"
              }
            ]
          },
          {
            "id": "enum19",
            "fieldName": "var12072",
            "displayText": "Har du fått tilbud om 3. vaksinedose?",
            "type": "enum",
            "dataType": {
              "options": [
                {
                  "value": "1",
                  "text": "Ja",
                  "index": 0
                },
                {
                  "value": "2",
                  "text": "Nei",
                  "index": 1
                },
                {
                  "value": "3",
                  "text": "Vet ikke",
                  "index": 2
                }
              ],
              "displayType": "radio",
              "orientation": "vertical"
            },
            "style": "1",
            "listPrefix": "0",
            "validationRules": [],
            "displayFormat": "0",
            "displayWhen": [
              {
                "displayWhenFields": [
                  {
                    "field": "enum16",
                    "hasValue": "1"
                  }
                ]
              }
            ]
          }
        ]
      },
      {
        "id": "group5",
        "fieldName": "group5",
        "displayText": "OM COVID-19 INFEKSJON",
        "type": "group",
        "dataType": {},
        "style": "1",
        "listPrefix": "0",
        "validationRules": [],
        "displayFormat": "0",
        "delimiter": "2",
        "subFields": [
          {
            "id": "enum20",
            "fieldName": "var12073",
            "displayText": "Er du testet for korona?",
            "type": "enum",
            "dataType": {
              "options": [
                {
                  "value": "1",
                  "text": "Ja",
                  "index": 0
                },
                {
                  "value": "2",
                  "text": "Nei",
                  "index": 1
                },
                {
                  "value": "3",
                  "text": "Vet ikke",
                  "index": 2
                }
              ],
              "displayType": "radio",
              "orientation": "vertical"
            },
            "style": "1",
            "listPrefix": "0",
            "validationRules": [],
            "displayFormat": "0"
          },
          {
            "id": "number6",
            "fieldName": "var12074",
            "displayText": "Hvor mange ganger er du testet?",
            "type": "number",
            "dataType": {
              "numberOfDecimals": 0,
              "max": 99,
              "maxLabel": null,
              "min": 0,
              "minLabel": null,
              "hideSliderValues": false,
              "step": 1,
              "unit": "ganger",
              "displayType": "number",
              "orientation": "vertical"
            },
            "style": "1",
            "listPrefix": "0",
            "validationRules": [],
            "displayFormat": "0",
            "displayWhen": [
              {
                "displayWhenFields": [
                  {
                    "field": "enum20",
                    "hasValue": "1"
                  }
                ]
              }
            ]
          },
          {
            "id": "enum22",
            "fieldName": "var12075",
            "displayText": "Hvor fornøyd var du med testsystemet?",
            "type": "enum",
            "dataType": {
              "options": [
                {
                  "value": "1",
                  "text": "1 - Ikke fornøyd",
                  "index": 0
                },
                {
                  "value": "2",
                  "text": "2",
                  "index": 1
                },
                {
                  "value": "3",
                  "text": "3",
                  "index": 2
                },
                {
                  "value": "4",
                  "text": "4",
                  "index": 3
                },
                {
                  "value": "5",
                  "text": "5 - Veldig fornøyd",
                  "index": 4
                }
              ],
              "displayType": "radio",
              "orientation": "vertical"
            },
            "style": "1",
            "listPrefix": "0",
            "validationRules": [],
            "displayFormat": "0",
            "displayWhen": [
              {
                "displayWhenFields": [
                  {
                    "field": "enum20",
                    "hasValue": "1"
                  }
                ]
              }
            ]
          },
          {
            "id": "enum23",
            "fieldName": "var12076",
            "displayText": "Har du testet positivt?",
            "type": "enum",
            "dataType": {
              "options": [
                {
                  "value": "1",
                  "text": "Ja",
                  "index": 0
                },
                {
                  "value": "2",
                  "text": "Nei",
                  "index": 1
                }
              ],
              "displayType": "radio",
              "orientation": "vertical"
            },
            "style": "1",
            "listPrefix": "0",
            "validationRules": [],
            "displayFormat": "0",
            "displayWhen": [
              {
                "displayWhenFields": [
                  {
                    "field": "enum20",
                    "hasValue": "1"
                  }
                ]
              }
            ]
          },
          {
            "id": "enum83",
            "fieldName": "var12077",
            "displayText": "Dato for positiv test (måned):",
            "type": "enum",
            "dataType": {
              "options": [
                {
                  "value": "1",
                  "text": "Januar",
                  "index": 0
                },
                {
                  "value": "2",
                  "text": "Februar",
                  "index": 1
                },
                {
                  "value": "3",
                  "text": "Mars",
                  "index": 2
                },
                {
                  "value": "4",
                  "text": "April",
                  "index": 3
                },
                {
                  "value": "5",
                  "text": "Mai",
                  "index": 4
                },
                {
                  "value": "6",
                  "text": "Juni",
                  "index": 5
                },
                {
                  "value": "7",
                  "text": "Juli",
                  "index": 6
                },
                {
                  "value": "8",
                  "text": "August",
                  "index": 7
                },
                {
                  "value": "9",
                  "text": "September",
                  "index": 8
                },
                {
                  "value": "10",
                  "text": "Oktober",
                  "index": 9
                },
                {
                  "value": "11",
                  "text": "November",
                  "index": 10
                },
                {
                  "value": "12",
                  "text": "Desember",
                  "index": 11
                }
              ],
              "displayType": "select",
              "orientation": "vertical"
            },
            "style": "1",
            "listPrefix": "0",
            "validationRules": [],
            "displayFormat": "0",
            "displayWhen": [
              {
                "displayWhenFields": [
                  {
                    "field": "enum23",
                    "hasValue": "1"
                  }
                ]
              }
            ]
          },
          {
            "id": "number10",
            "fieldName": "var12078",
            "displayText": "Dato for positiv test (år):",
            "type": "number",
            "dataType": {
              "numberOfDecimals": 0,
              "max": 2022,
              "maxLabel": null,
              "min": 2020,
              "minLabel": null,
              "hideSliderValues": false,
              "step": 1,
              "unit": null,
              "displayType": "number",
              "orientation": "vertical"
            },
            "style": "1",
            "listPrefix": "0",
            "validationRules": [],
            "displayFormat": "0",
            "displayWhen": [
              {
                "displayWhenFields": [
                  {
                    "field": "enum23",
                    "hasValue": "1"
                  }
                ]
              }
            ]
          },
          {
            "id": "enum24",
            "fieldName": "var12079",
            "displayText": "Hvor lenge var du syk?",
            "type": "enum",
            "dataType": {
              "options": [
                {
                  "value": "1",
                  "text": "Mindre enn 3 dager",
                  "index": 0
                },
                {
                  "value": "2",
                  "text": "3-6 dager",
                  "index": 1
                },
                {
                  "value": "3",
                  "text": "7-14 dager",
                  "index": 2
                },
                {
                  "value": "4",
                  "text": "Mer enn 14 dager",
                  "index": 3
                },
                {
                  "value": "5",
                  "text": "Var ikke syk",
                  "index": 4
                }
              ],
              "displayType": "radio",
              "orientation": "vertical"
            },
            "style": "1",
            "listPrefix": "0",
            "validationRules": [],
            "displayFormat": "0",
            "displayWhen": [
              {
                "displayWhenFields": [
                  {
                    "field": "enum23",
                    "hasValue": "1"
                  }
                ]
              }
            ]
          },
          {
            "id": "enum25",
            "fieldName": "var12080",
            "displayText": "Var du innlagt på sykehus på grunn av koronasykdom?",
            "type": "enum",
            "dataType": {
              "options": [
                {
                  "value": "1",
                  "text": "Ja",
                  "index": 0
                },
                {
                  "value": "2",
                  "text": "Nei",
                  "index": 1
                }
              ],
              "displayType": "radio",
              "orientation": "vertical"
            },
            "style": "1",
            "listPrefix": "0",
            "validationRules": [],
            "displayFormat": "0",
            "displayWhen": [
              {
                "displayWhenFields": [
                  {
                    "field": "enum23",
                    "hasValue": "1"
                  }
                ]
              }
            ]
          },
          {
            "id": "number7",
            "fieldName": "var12081",
            "displayText": "Hvor lenge var du innlagt?",
            "type": "number",
            "dataType": {
              "numberOfDecimals": 0,
              "max": 100,
              "maxLabel": null,
              "min": 1,
              "minLabel": null,
              "hideSliderValues": false,
              "step": 1,
              "unit": "dager",
              "displayType": "number",
              "orientation": "vertical"
            },
            "style": "1",
            "listPrefix": "0",
            "validationRules": [],
            "displayFormat": "0",
            "displayWhen": [
              {
                "displayWhenFields": [
                  {
                    "field": "enum25",
                    "hasValue": "1"
                  }
                ]
              }
            ]
          },
          {
            "id": "enum26",
            "fieldName": "var12082",
            "displayText": "Utviklet du komplikasjoner til koronasykdommen?",
            "type": "enum",
            "dataType": {
              "options": [
                {
                  "value": "1",
                  "text": "Ja",
                  "index": 0
                },
                {
                  "value": "2",
                  "text": "Nei",
                  "index": 1
                },
                {
                  "value": "3",
                  "text": "Vet ikke",
                  "index": 2
                }
              ],
              "displayType": "radio",
              "orientation": "vertical"
            },
            "style": "1",
            "listPrefix": "0",
            "validationRules": [],
            "displayFormat": "0",
            "displayWhen": [
              {
                "displayWhenFields": [
                  {
                    "field": "enum23",
                    "hasValue": "1"
                  }
                ]
              }
            ]
          },
          {
            "id": "enum27",
            "fieldName": "var12083",
            "displayText": "Utviklet du pusteproblemer som krevde intensivbehandling med respiratorstøtte?",
            "type": "enum",
            "dataType": {
              "options": [
                {
                  "value": "1",
                  "text": "Ja",
                  "index": 0
                },
                {
                  "value": "2",
                  "text": "Nei",
                  "index": 1
                },
                {
                  "value": "3",
                  "text": "Vet ikke",
                  "index": 2
                }
              ],
              "displayType": "radio",
              "orientation": "vertical"
            },
            "style": "1",
            "listPrefix": "0",
            "validationRules": [],
            "displayFormat": "0",
            "displayWhen": [
              {
                "displayWhenFields": [
                  {
                    "field": "enum26",
                    "hasValue": "1"
                  }
                ]
              }
            ]
          },
          {
            "id": "enum28",
            "fieldName": "var12084",
            "displayText": "Utviklet du lungebetennelse som krevde antibiotikabehandling?",
            "type": "enum",
            "dataType": {
              "options": [
                {
                  "value": "1",
                  "text": "Ja",
                  "index": 0
                },
                {
                  "value": "2",
                  "text": "Nei",
                  "index": 1
                },
                {
                  "value": "3",
                  "text": "Vet ikke",
                  "index": 2
                }
              ],
              "displayType": "radio",
              "orientation": "vertical"
            },
            "style": "1",
            "listPrefix": "0",
            "validationRules": [],
            "displayFormat": "0",
            "displayWhen": [
              {
                "displayWhenFields": [
                  {
                    "field": "enum26",
                    "hasValue": "1"
                  }
                ]
              }
            ]
          },
          {
            "id": "enum29",
            "fieldName": "var12085",
            "displayText": "Utviklet du annen infeksjon som krevde antibiotikabehandling?",
            "type": "enum",
            "dataType": {
              "options": [
                {
                  "value": "1",
                  "text": "Ja",
                  "index": 0
                },
                {
                  "value": "2",
                  "text": "Nei",
                  "index": 1
                },
                {
                  "value": "3",
                  "text": "Vet ikke",
                  "index": 2
                }
              ],
              "displayType": "radio",
              "orientation": "vertical"
            },
            "style": "1",
            "listPrefix": "0",
            "validationRules": [],
            "displayFormat": "0",
            "displayWhen": [
              {
                "displayWhenFields": [
                  {
                    "field": "enum26",
                    "hasValue": "1"
                  }
                ]
              }
            ]
          },
          {
            "id": "enum30",
            "fieldName": "var12086",
            "displayText": "Utviklet du andre komplikasjoner?",
            "type": "enum",
            "dataType": {
              "options": [
                {
                  "value": "1",
                  "text": "Ja",
                  "index": 0
                },
                {
                  "value": "2",
                  "text": "Nei",
                  "index": 1
                },
                {
                  "value": "3",
                  "text": "Vet ikke",
                  "index": 2
                }
              ],
              "displayType": "radio",
              "orientation": "vertical"
            },
            "style": "1",
            "listPrefix": "0",
            "validationRules": [],
            "displayFormat": "0",
            "displayWhen": [
              {
                "displayWhenFields": [
                  {
                    "field": "enum26",
                    "hasValue": "1"
                  }
                ]
              }
            ]
          },
          {
            "id": "enum31",
            "fieldName": "var12087",
            "displayText": "Sliter du med tretthet og nedsatt funksjonsevne i etterkant av koronainfeksjon (såkalt long covid)?",
            "type": "enum",
            "dataType": {
              "options": [
                {
                  "value": "1",
                  "text": "Ja",
                  "index": 0
                },
                {
                  "value": "2",
                  "text": "Nei",
                  "index": 1
                }
              ],
              "displayType": "radio",
              "orientation": "vertical"
            },
            "style": "1",
            "listPrefix": "0",
            "validationRules": [],
            "displayFormat": "0",
            "displayWhen": [
              {
                "displayWhenFields": [
                  {
                    "field": "enum23",
                    "hasValue": "1"
                  }
                ]
              }
            ]
          },
          {
            "id": "group8",
            "fieldName": "group8",
            "displayText": "Sliter du med noen av følgende symptomer fremdeles?",
            "type": "group",
            "dataType": {},
            "style": "2",
            "listPrefix": "0",
            "validationRules": [],
            "displayFormat": "0",
            "delimiter": "0",
            "subFields": [
              {
                "id": "enum64",
                "fieldName": "var12088",
                "displayText": "Tungpust",
                "type": "enum",
                "dataType": {
                  "options": [
                    {
                      "value": "1",
                      "text": "Ja",
                      "index": 0
                    },
                    {
                      "value": "2",
                      "text": "Nei",
                      "index": 1
                    }
                  ],
                  "displayType": "radio",
                  "orientation": "vertical"
                },
                "style": "1",
                "listPrefix": "0",
                "validationRules": [],
                "displayFormat": "0",
                "displayWhen": null
              },
              {
                "id": "enum65",
                "fieldName": "var12089",
                "displayText": "Fatigue (utmattelse)",
                "type": "enum",
                "dataType": {
                  "options": [
                    {
                      "value": "1",
                      "text": "Ja",
                      "index": 0
                    },
                    {
                      "value": "2",
                      "text": "Nei",
                      "index": 1
                    }
                  ],
                  "displayType": "radio",
                  "orientation": "vertical"
                },
                "style": "1",
                "listPrefix": "0",
                "validationRules": [],
                "displayFormat": "0"
              },
              {
                "id": "enum66",
                "fieldName": "var12090",
                "displayText": "Vekttap",
                "type": "enum",
                "dataType": {
                  "options": [
                    {
                      "value": "1",
                      "text": "Ja",
                      "index": 0
                    },
                    {
                      "value": "2",
                      "text": "Nei",
                      "index": 1
                    }
                  ],
                  "displayType": "radio",
                  "orientation": "vertical"
                },
                "style": "1",
                "listPrefix": "0",
                "validationRules": [],
                "displayFormat": "0"
              },
              {
                "id": "enum67",
                "fieldName": "var12091",
                "displayText": "Endret smak-/luktesans",
                "type": "enum",
                "dataType": {
                  "options": [
                    {
                      "value": "1",
                      "text": "Ja",
                      "index": 0
                    },
                    {
                      "value": "2",
                      "text": "Nei",
                      "index": 1
                    }
                  ],
                  "displayType": "radio",
                  "orientation": "vertical"
                },
                "style": "1",
                "listPrefix": "0",
                "validationRules": [],
                "displayFormat": "0"
              },
              {
                "id": "enum68",
                "fieldName": "var12092",
                "displayText": "Smerter",
                "type": "enum",
                "dataType": {
                  "options": [
                    {
                      "value": "1",
                      "text": "Ja",
                      "index": 0
                    },
                    {
                      "value": "2",
                      "text": "Nei",
                      "index": 1
                    }
                  ],
                  "displayType": "radio",
                  "orientation": "vertical"
                },
                "style": "1",
                "listPrefix": "0",
                "validationRules": [],
                "displayFormat": "0"
              },
              {
                "id": "enum69",
                "fieldName": "var12093",
                "displayText": "Nedsatt arbeidsevne",
                "type": "enum",
                "dataType": {
                  "options": [
                    {
                      "value": "1",
                      "text": "Ja",
                      "index": 0
                    },
                    {
                      "value": "2",
                      "text": "Nei",
                      "index": 1
                    }
                  ],
                  "displayType": "radio",
                  "orientation": "vertical"
                },
                "style": "1",
                "listPrefix": "0",
                "validationRules": [],
                "displayFormat": "0"
              }
            ],
            "displayWhen": [
              {
                "displayWhenFields": [
                  {
                    "field": "enum31",
                    "hasValue": "1"
                  }
                ]
              }
            ]
          }
        ]
      },
      {
        "id": "group6",
        "fieldName": "diabeteskorona",
        "displayText": "OM DIN DIABETES UNDER KORONASYKDOM",
        "type": "group",
        "dataType": {},
        "style": "1",
        "listPrefix": "0",
        "validationRules": [],
        "displayFormat": "0",
        "delimiter": "2",
        "subFields": [
          {
            "id": "enum38",
            "fieldName": "var12094",
            "displayText": "Merket du endringer i ditt blodsukker da du hadde korona?",
            "type": "enum",
            "dataType": {
              "options": [
                {
                  "value": "1",
                  "text": "Nei",
                  "index": 0
                },
                {
                  "value": "2",
                  "text": "Ja, forhøyet blodsukker",
                  "index": 1
                },
                {
                  "value": "3",
                  "text": "Ja, lavere blodsukker",
                  "index": 2
                }
              ],
              "displayType": "radio",
              "orientation": "vertical"
            },
            "style": "1",
            "listPrefix": "0",
            "validationRules": [],
            "displayFormat": "0",
            "displayWhen": [
              {
                "displayWhenFields": [
                  {
                    "field": "enum23",
                    "hasValue": "1"
                  }
                ]
              }
            ]
          },
          {
            "id": "enum39",
            "fieldName": "var12095",
            "displayText": "Merket du endring i ditt insulinbehov da du hadde korona?",
            "type": "enum",
            "dataType": {
              "options": [
                {
                  "value": "1",
                  "text": "Nei",
                  "index": 0
                },
                {
                  "value": "2",
                  "text": "Ja, økt behov",
                  "index": 1
                },
                {
                  "value": "3",
                  "text": "Ja, nedsatt behov",
                  "index": 2
                }
              ],
              "displayType": "radio",
              "orientation": "vertical"
            },
            "style": "1",
            "listPrefix": "0",
            "validationRules": [],
            "displayFormat": "0",
            "displayWhen": [
              {
                "displayWhenFields": [
                  {
                    "field": "enum23",
                    "hasValue": "1"
                  }
                ]
              }
            ]
          },
          {
            "id": "enum40",
            "fieldName": "var12096",
            "displayText": "Hadde du alvorlig hypoglykemi/føling der du trengte hjelp fra andre under koronasykdommen?",
            "type": "enum",
            "dataType": {
              "options": [
                {
                  "value": "1",
                  "text": "Ja",
                  "index": 0
                },
                {
                  "value": "2",
                  "text": "Nei",
                  "index": 1
                }
              ],
              "displayType": "radio",
              "orientation": "vertical"
            },
            "style": "1",
            "listPrefix": "0",
            "validationRules": [],
            "displayFormat": "0",
            "displayWhen": [
              {
                "displayWhenFields": [
                  {
                    "field": "enum23",
                    "hasValue": "1"
                  }
                ]
              }
            ]
          },
          {
            "id": "enum41",
            "fieldName": "var12097",
            "displayText": "Målte du ketoner i blod/urin hjemme under koronasykdommen?",
            "type": "enum",
            "dataType": {
              "options": [
                {
                  "value": "1",
                  "text": "Ja",
                  "index": 0
                },
                {
                  "value": "2",
                  "text": "Nei",
                  "index": 1
                },
                {
                  "value": "3",
                  "text": "Vet ikke",
                  "index": 2
                }
              ],
              "displayType": "radio",
              "orientation": "vertical"
            },
            "style": "1",
            "listPrefix": "0",
            "validationRules": [],
            "displayFormat": "0"
          },
          {
            "id": "enum42",
            "fieldName": "var12098",
            "displayText": "Hadde du mer enn 1+ på urinketoner?",
            "type": "enum",
            "dataType": {
              "options": [
                {
                  "value": "1",
                  "text": "Ja",
                  "index": 0
                },
                {
                  "value": "2",
                  "text": "Nei",
                  "index": 1
                },
                {
                  "value": "3",
                  "text": "Vet ikke",
                  "index": 2
                }
              ],
              "displayType": "radio",
              "orientation": "vertical"
            },
            "style": "1",
            "listPrefix": "0",
            "validationRules": [],
            "displayFormat": "0",
            "displayWhen": [
              {
                "displayWhenFields": [
                  {
                    "field": "enum41",
                    "hasValue": "1"
                  }
                ]
              }
            ]
          },
          {
            "id": "enum43",
            "fieldName": "var12099",
            "displayText": "Hadde du ketoacidose/syreforgiftning under koronasykdommen?",
            "type": "enum",
            "dataType": {
              "options": [
                {
                  "value": "1",
                  "text": "Ja",
                  "index": 0
                },
                {
                  "value": "2",
                  "text": "Nei",
                  "index": 1
                },
                {
                  "value": "3",
                  "text": "Vet ikke",
                  "index": 2
                }
              ],
              "displayType": "radio",
              "orientation": "vertical"
            },
            "style": "1",
            "listPrefix": "0",
            "validationRules": [],
            "displayFormat": "0",
            "displayWhen": [
              {
                "displayWhenFields": [
                  {
                    "field": "enum23",
                    "hasValue": "1"
                  }
                ]
              }
            ]
          }
        ],
        "displayWhen": [
          {
            "displayWhenFields": [
              {
                "field": "enum23",
                "hasValue": "1"
              }
            ]
          }
        ]
      },
      {
        "id": "group7",
        "fieldName": "group7",
        "displayText": "GENERELT OM COVID-19 PANDEMIEN OG DET Å HA DIABETES",
        "type": "group",
        "dataType": {},
        "style": "1",
        "listPrefix": "0",
        "validationRules": [],
        "displayFormat": "0",
        "delimiter": "2",
        "subFields": [
          {
            "id": "enum44",
            "fieldName": "var12100",
            "displayText": "Har du følt ekstra engstelse med tanke på at du har diabetes mellitus nå under koronapandemien?",
            "type": "enum",
            "dataType": {
              "options": [
                {
                  "value": "1",
                  "text": "Ja",
                  "index": 0
                },
                {
                  "value": "2",
                  "text": "Nei",
                  "index": 1
                }
              ],
              "displayType": "radio",
              "orientation": "vertical"
            },
            "style": "1",
            "listPrefix": "0",
            "validationRules": [],
            "displayFormat": "0"
          },
          {
            "id": "enum45",
            "fieldName": "var12101",
            "displayText": "Har du følt deg nedstemt i løpet av covid-19 pandemien?",
            "type": "enum",
            "dataType": {
              "options": [
                {
                  "value": "1",
                  "text": "Har ikke følt meg nedstemt",
                  "index": 0
                },
                {
                  "value": "2",
                  "text": "Ja, oftere enn vanlig",
                  "index": 1
                },
                {
                  "value": "3",
                  "text": "Ja, men sjeldnere enn vanlig",
                  "index": 2
                },
                {
                  "value": "4",
                  "text": "Ja, omtrent som vanlig",
                  "index": 3
                }
              ],
              "displayType": "radio",
              "orientation": "vertical"
            },
            "style": "1",
            "listPrefix": "0",
            "validationRules": [],
            "displayFormat": "0"
          },
          {
            "id": "enum46",
            "fieldName": "var12102",
            "displayText": "Har du vært engstelig for å ikke få tak i medisiner for din diabetes under covid-19 pandemien?",
            "type": "enum",
            "dataType": {
              "options": [
                {
                  "value": "1",
                  "text": "Ja",
                  "index": 0
                },
                {
                  "value": "2",
                  "text": "Nei",
                  "index": 1
                }
              ],
              "displayType": "radio",
              "orientation": "vertical"
            },
            "style": "1",
            "listPrefix": "0",
            "validationRules": [],
            "displayFormat": "0"
          },
          {
            "id": "enum47",
            "fieldName": "var12103",
            "displayText": "Har du hatt plager på grunn av isolasjon og ensomhet under covid-19 pandemien?",
            "type": "enum",
            "dataType": {
              "options": [
                {
                  "value": "1",
                  "text": "Ja",
                  "index": 0
                },
                {
                  "value": "2",
                  "text": "Nei",
                  "index": 1
                }
              ],
              "displayType": "radio",
              "orientation": "vertical"
            },
            "style": "1",
            "listPrefix": "0",
            "validationRules": [],
            "displayFormat": "0"
          },
          {
            "id": "enum48",
            "fieldName": "var12122",
            "displayText": "Er du fornøyd med oppfølgingen du har fått på poliklinikken / hos privat spesialist for din diabetes i pandemiperioden?",
            "type": "enum",
            "dataType": {
              "options": [
                {
                  "value": "1",
                  "text": "Ikke i det hele tatt",
                  "index": 0
                },
                {
                  "value": "2",
                  "text": "I liten grad",
                  "index": 1
                },
                {
                  "value": "3",
                  "text": "I noen grad",
                  "index": 2
                },
                {
                  "value": "4",
                  "text": "I stor grad",
                  "index": 3
                },
                {
                  "value": "5",
                  "text": "I svært stor grad",
                  "index": 4
                },
                {
                  "value": "6",
                  "text": "Ikke aktuelt",
                  "index": 5
                }
              ],
              "displayType": "radio",
              "orientation": "vertical"
            },
            "style": "1",
            "listPrefix": "0",
            "validationRules": [],
            "displayFormat": "0",
            "displayWhen": [
              {
                "displayWhenFields": [
                  {
                    "field": "enum4",
                    "hasValue": "2"
                  },
                  {
                    "field": "enum4",
                    "hasValue": "3"
                  }
                ]
              }
            ]
          },
          {
            "id": "enum49",
            "fieldName": "var12123",
            "displayText": "Er du fornøyd med oppfølgingen du har fått hos fastlegen for din diabetes i pandemiperioden?",
            "type": "enum",
            "dataType": {
              "options": [
                {
                  "value": "1",
                  "text": "Ikke i det hele tatt",
                  "index": 0
                },
                {
                  "value": "2",
                  "text": "I liten grad",
                  "index": 1
                },
                {
                  "value": "3",
                  "text": "I noen grad",
                  "index": 2
                },
                {
                  "value": "4",
                  "text": "I stor grad",
                  "index": 3
                },
                {
                  "value": "5",
                  "text": "I svært stor grad",
                  "index": 4
                },
                {
                  "value": "6",
                  "text": "Ikke aktuelt",
                  "index": 5
                }
              ],
              "displayType": "radio",
              "orientation": "vertical"
            },
            "style": "1",
            "listPrefix": "0",
            "validationRules": [],
            "displayFormat": "0",
            "displayWhen": [
              {
                "displayWhenFields": [
                  {
                    "field": "enum4",
                    "hasValue": "1"
                  },
                  {
                    "field": "enum4",
                    "hasValue": "3"
                  }
                ]
              }
            ]
          },
          {
            "id": "enum50",
            "fieldName": "var12104",
            "displayText": "Har oppfølgingen av din diabetes blitt endret, eventuelt skadelidende, grunnet pandemien?",
            "type": "enum",
            "dataType": {
              "options": [
                {
                  "value": "1",
                  "text": "Ja",
                  "index": 0
                },
                {
                  "value": "2",
                  "text": "Nei, kontrollene har gått som normalt",
                  "index": 1
                }
              ],
              "displayType": "radio",
              "orientation": "vertical"
            },
            "style": "1",
            "listPrefix": "0",
            "validationRules": [],
            "displayFormat": "0"
          },
          {
            "id": "group10",
            "fieldName": "group10",
            "displayText": "Hvordan ble oppfølgingen av din diabetes endret eller skadelidende grunnet pandemien?",
            "type": "group",
            "dataType": {},
            "style": "2",
            "listPrefix": "0",
            "validationRules": [],
            "displayFormat": "0",
            "delimiter": "0",
            "displayWhen": [
              {
                "displayWhenFields": [
                  {
                    "field": "enum50",
                    "hasValue": "1"
                  }
                ]
              }
            ],
            "subFields": [
              {
                "id": "enum75",
                "fieldName": "var12105",
                "displayText": "Time ble avlyst av behandler",
                "type": "enum",
                "dataType": {
                  "options": [
                    {
                      "value": "1",
                      "text": "Ja",
                      "index": 0
                    },
                    {
                      "value": "2",
                      "text": "Nei",
                      "index": 1
                    }
                  ],
                  "displayType": "radio",
                  "orientation": "vertical"
                },
                "style": "1",
                "listPrefix": "0",
                "validationRules": [],
                "displayFormat": "0"
              },
              {
                "id": "enum80",
                "fieldName": "var12106",
                "displayText": "Fikk du tilbud om ny time?",
                "type": "enum",
                "dataType": {
                  "options": [
                    {
                      "value": "1",
                      "text": "Ja",
                      "index": 0
                    },
                    {
                      "value": "2",
                      "text": "Nei",
                      "index": 1
                    }
                  ],
                  "displayType": "radio",
                  "orientation": "vertical"
                },
                "style": "1",
                "listPrefix": "0",
                "validationRules": [],
                "displayFormat": "0",
                "displayWhen": [
                  {
                    "displayWhenFields": [
                      {
                        "field": "enum75",
                        "hasValue": "1"
                      }
                    ]
                  }
                ]
              },
              {
                "id": "enum76",
                "fieldName": "var12107",
                "displayText": "Time ble utsatt av behandler",
                "type": "enum",
                "dataType": {
                  "options": [
                    {
                      "value": "1",
                      "text": "Ja",
                      "index": 0
                    },
                    {
                      "value": "2",
                      "text": "Nei",
                      "index": 1
                    }
                  ],
                  "displayType": "radio",
                  "orientation": "vertical"
                },
                "style": "1",
                "listPrefix": "0",
                "validationRules": [],
                "displayFormat": "0"
              },
              {
                "id": "enum77",
                "fieldName": "var12108",
                "displayText": "Jeg ville ikke møte til time",
                "type": "enum",
                "dataType": {
                  "options": [
                    {
                      "value": "1",
                      "text": "Ja",
                      "index": 0
                    },
                    {
                      "value": "2",
                      "text": "Nei",
                      "index": 1
                    }
                  ],
                  "displayType": "radio",
                  "orientation": "vertical"
                },
                "style": "1",
                "listPrefix": "0",
                "validationRules": [],
                "displayFormat": "0"
              },
              {
                "id": "enum78",
                "fieldName": "var12109",
                "displayText": "Time ble omgjort til telefonkonsultasjon",
                "type": "enum",
                "dataType": {
                  "options": [
                    {
                      "value": "1",
                      "text": "Ja",
                      "index": 0
                    },
                    {
                      "value": "2",
                      "text": "Nei",
                      "index": 1
                    }
                  ],
                  "displayType": "radio",
                  "orientation": "vertical"
                },
                "style": "1",
                "listPrefix": "0",
                "validationRules": [],
                "displayFormat": "0"
              },
              {
                "id": "enum81",
                "fieldName": "var12110",
                "displayText": "Hvor fornøyd var du med at timen ble omgjort til telefonkonsultasjon?",
                "type": "enum",
                "dataType": {
                  "options": [
                    {
                      "value": "1",
                      "text": "Ikke i det hele tatt",
                      "index": 0
                    },
                    {
                      "value": "2",
                      "text": "I liten grad",
                      "index": 1
                    },
                    {
                      "value": "3",
                      "text": "I noen grad",
                      "index": 2
                    },
                    {
                      "value": "4",
                      "text": "I stor grad",
                      "index": 3
                    },
                    {
                      "value": "5",
                      "text": "I svært stor grad",
                      "index": 4
                    },
                    {
                      "value": "6",
                      "text": "Ikke aktuelt",
                      "index": 5
                    }
                  ],
                  "displayType": "radio",
                  "orientation": "vertical"
                },
                "style": "1",
                "listPrefix": "0",
                "validationRules": [],
                "displayFormat": "0",
                "displayWhen": [
                  {
                    "displayWhenFields": [
                      {
                        "field": "enum78",
                        "hasValue": "1"
                      }
                    ]
                  }
                ]
              },
              {
                "id": "enum79",
                "fieldName": "var12111",
                "displayText": "Time ble omgjort til videokonsultasjon",
                "type": "enum",
                "dataType": {
                  "options": [
                    {
                      "value": "1",
                      "text": "Ja",
                      "index": 0
                    },
                    {
                      "value": "2",
                      "text": "Nei",
                      "index": 1
                    }
                  ],
                  "displayType": "radio",
                  "orientation": "vertical"
                },
                "style": "1",
                "listPrefix": "0",
                "validationRules": [],
                "displayFormat": "0"
              },
              {
                "id": "enum82",
                "fieldName": "var12112",
                "displayText": "Hvor fornøyd var du med at timen ble omgjort til videokonsultasjon?",
                "type": "enum",
                "dataType": {
                  "options": [
                    {
                      "value": "1",
                      "text": "Ikke i det hele tatt",
                      "index": 0
                    },
                    {
                      "value": "2",
                      "text": "I liten grad",
                      "index": 1
                    },
                    {
                      "value": "3",
                      "text": "I noen grad",
                      "index": 2
                    },
                    {
                      "value": "4",
                      "text": "I stor grad",
                      "index": 3
                    },
                    {
                      "value": "5",
                      "text": "I svært stor grad",
                      "index": 4
                    },
                    {
                      "value": "6",
                      "text": "Ikke aktuelt",
                      "index": 5
                    }
                  ],
                  "displayType": "radio",
                  "orientation": "vertical"
                },
                "style": "1",
                "listPrefix": "0",
                "validationRules": [],
                "displayFormat": "0",
                "displayWhen": [
                  {
                    "displayWhenFields": [
                      {
                        "field": "enum79",
                        "hasValue": "1"
                      }
                    ]
                  }
                ]
              }
            ]
          },
          {
            "id": "enum54",
            "fieldName": "var12113",
            "displayText": "Kunne du tenke deg å i fremtiden erstatte noen av fremmøte-konsultasjonene hos fastlege / på sykehus med telefon- eller videokonsultasjon?",
            "type": "enum",
            "dataType": {
              "options": [
                {
                  "value": "1",
                  "text": "Ja, telefon",
                  "index": 0
                },
                {
                  "value": "2",
                  "text": "Ja, video",
                  "index": 1
                },
                {
                  "value": "3",
                  "text": "Nei",
                  "index": 2
                },
                {
                  "value": "4",
                  "text": "Vet ikke",
                  "index": 3
                }
              ],
              "displayType": "radio",
              "orientation": "vertical"
            },
            "style": "1",
            "listPrefix": "0",
            "validationRules": [],
            "displayFormat": "0"
          },
          {
            "id": "enum55",
            "fieldName": "var12114",
            "displayText": "Har du merket endring i din diabetesregulering under covid-19 pandemien?",
            "type": "enum",
            "dataType": {
              "options": [
                {
                  "value": "1",
                  "text": "Nei, ingen endring",
                  "index": 0
                },
                {
                  "value": "2",
                  "text": "Ja, forverret regulering",
                  "index": 1
                },
                {
                  "value": "3",
                  "text": "Ja, bedre regulering",
                  "index": 2
                }
              ],
              "displayType": "radio",
              "orientation": "vertical"
            },
            "style": "1",
            "listPrefix": "0",
            "validationRules": [],
            "displayFormat": "0"
          },
          {
            "id": "enum56",
            "fieldName": "var12115",
            "displayText": "Har ditt fysiske aktivitetsnivå endret seg under covid-19 pandemien?",
            "type": "enum",
            "dataType": {
              "options": [
                {
                  "value": "1",
                  "text": "Nei, ingen endring",
                  "index": 0
                },
                {
                  "value": "2",
                  "text": "Ja, økt aktivitet",
                  "index": 1
                },
                {
                  "value": "3",
                  "text": "Ja, nedsatt aktivitet",
                  "index": 2
                }
              ],
              "displayType": "radio",
              "orientation": "vertical"
            },
            "style": "1",
            "listPrefix": "0",
            "validationRules": [],
            "displayFormat": "0"
          },
          {
            "id": "enum57",
            "fieldName": "var12116",
            "displayText": "Har du endret vekt som følge av covid-19 pandemien?",
            "type": "enum",
            "dataType": {
              "options": [
                {
                  "value": "1",
                  "text": "Nei, ingen endring",
                  "index": 0
                },
                {
                  "value": "2",
                  "text": "Ja, gått opp i vekt",
                  "index": 1
                },
                {
                  "value": "3",
                  "text": "Ja, gått ned i vekt",
                  "index": 2
                }
              ],
              "displayType": "radio",
              "orientation": "vertical"
            },
            "style": "1",
            "listPrefix": "0",
            "validationRules": [],
            "displayFormat": "0"
          },
          {
            "id": "number8",
            "fieldName": "var12124",
            "displayText": "Hvor mange kilo har du gått opp?",
            "type": "number",
            "dataType": {
              "numberOfDecimals": 0,
              "max": 99,
              "maxLabel": null,
              "min": 1,
              "minLabel": null,
              "hideSliderValues": false,
              "step": 1,
              "unit": "kg",
              "displayType": "number",
              "orientation": "vertical"
            },
            "style": "1",
            "listPrefix": "0",
            "validationRules": [],
            "displayFormat": "0",
            "displayWhen": [
              {
                "displayWhenFields": [
                  {
                    "field": "enum57",
                    "hasValue": "2"
                  }
                ]
              }
            ]
          },
          {
            "id": "number9",
            "fieldName": "var12125",
            "displayText": "Hvor mange kilo har du gått ned?",
            "type": "number",
            "dataType": {
              "numberOfDecimals": 0,
              "max": 99,
              "maxLabel": null,
              "min": 1,
              "minLabel": null,
              "hideSliderValues": false,
              "step": 1,
              "unit": "kg",
              "displayType": "number",
              "orientation": "vertical"
            },
            "style": "1",
            "listPrefix": "0",
            "validationRules": [],
            "displayFormat": "0",
            "displayWhen": [
              {
                "displayWhenFields": [
                  {
                    "field": "enum57",
                    "hasValue": "3"
                  }
                ]
              }
            ]
          },
          {
            "id": "enum58",
            "fieldName": "var12117",
            "displayText": "Har du på grunn av covid-19 pandemien vært tvunget til å jobbe/studere hjemmefra?",
            "type": "enum",
            "dataType": {
              "options": [
                {
                  "value": "1",
                  "text": "Ikke i det hele tatt",
                  "index": 0
                },
                {
                  "value": "2",
                  "text": "I liten grad",
                  "index": 1
                },
                {
                  "value": "3",
                  "text": "I noen grad",
                  "index": 2
                },
                {
                  "value": "4",
                  "text": "I stor grad",
                  "index": 3
                },
                {
                  "value": "5",
                  "text": "I svært stor grad",
                  "index": 4
                },
                {
                  "value": "6",
                  "text": "Ikke aktuelt",
                  "index": 5
                }
              ],
              "displayType": "radio",
              "orientation": "vertical"
            },
            "style": "1",
            "listPrefix": "0",
            "validationRules": [],
            "displayFormat": "0"
          },
          {
            "id": "enum59",
            "fieldName": "var12118",
            "displayText": "Har du hatt økonomiske bekymringer som er direkte knyttet til covid-19 pandemien?",
            "type": "enum",
            "dataType": {
              "options": [
                {
                  "value": "1",
                  "text": "Ja",
                  "index": 0
                },
                {
                  "value": "2",
                  "text": "Nei",
                  "index": 1
                }
              ],
              "displayType": "radio",
              "orientation": "vertical"
            },
            "style": "1",
            "listPrefix": "0",
            "validationRules": [],
            "displayFormat": "0"
          },
          {
            "id": "enum60",
            "fieldName": "var12119",
            "displayText": "Har du holdt deg hjemme på grunn av din diabetes i løpet av covid-19 pandemien (for eksempel ikke forlatt huset fordi du er definert som risikopasient)?",
            "type": "enum",
            "dataType": {
              "options": [
                {
                  "value": "1",
                  "text": "Nei",
                  "index": 0
                },
                {
                  "value": "2",
                  "text": "Ja, hele tiden",
                  "index": 1
                },
                {
                  "value": "3",
                  "text": "Ja, mye av tiden",
                  "index": 2
                }
              ],
              "displayType": "radio",
              "orientation": "vertical"
            },
            "style": "1",
            "listPrefix": "0",
            "validationRules": [],
            "displayFormat": "0"
          },
          {
            "id": "enum61",
            "fieldName": "var12126",
            "displayText": "Har du benyttet personlig smittevernutstyr/beskyttelse under pandemien, selv når dette ikke har vært pålagt fra myndighetene?",
            "type": "enum",
            "dataType": {
              "options": [
                {
                  "value": "1",
                  "text": "Nei, aldri",
                  "index": 0
                },
                {
                  "value": "2",
                  "text": "Ja, hjemme",
                  "index": 1
                },
                {
                  "value": "3",
                  "text": "Ja, på jobb",
                  "index": 2
                },
                {
                  "value": "4",
                  "text": "Ja, utenfor huset",
                  "index": 3
                }
              ],
              "displayType": "radio",
              "orientation": "vertical"
            },
            "style": "1",
            "listPrefix": "0",
            "validationRules": [],
            "displayFormat": "0"
          },
          {
            "id": "enum62",
            "fieldName": "var12120",
            "displayText": "Opplevde du informasjon om covid-19 fra myndighetene som tilfredsstillende?",
            "type": "enum",
            "dataType": {
              "options": [
                {
                  "value": "1",
                  "text": "Ja",
                  "index": 0
                },
                {
                  "value": "2",
                  "text": "Nei, for lite informasjon",
                  "index": 1
                },
                {
                  "value": "3",
                  "text": "Nei, for mye informasjon",
                  "index": 2
                }
              ],
              "displayType": "radio",
              "orientation": "vertical"
            },
            "style": "1",
            "listPrefix": "0",
            "validationRules": [],
            "displayFormat": "0"
          },
          {
            "id": "enum63",
            "fieldName": "var12121",
            "displayText": "Har du vært i utlandet i løpet av pandemien?",
            "type": "enum",
            "dataType": {
              "options": [
                {
                  "value": "1",
                  "text": "Ja, nødvendig reise (arbeid, familieforhold)",
                  "index": 0
                },
                {
                  "value": "2",
                  "text": "Ja, ferie",
                  "index": 1
                },
                {
                  "value": "3",
                  "text": "Nei",
                  "index": 2
                }
              ],
              "displayType": "radio",
              "orientation": "vertical"
            },
            "style": "1",
            "listPrefix": "0",
            "validationRules": [],
            "displayFormat": "0"
          }
        ]
      }
    ]
  }
]